<?xml version="1.0" encoding="utf-8"?>
<!-- Generator: Adobe Illustrator 23.0.1, SVG Export Plug-In . SVG Version: 6.00 Build 0)  -->
<svg version="1.1" id="Layer_1" xmlns="http://www.w3.org/2000/svg" xmlns:xlink="http://www.w3.org/1999/xlink" x="0px" y="0px"
	 viewBox="0 0 272 35.2" style="enable-background:new 0 0 272 35.2;" xml:space="preserve">
<style type="text/css">
	.st0{fill:#B87150;}
</style>
<title>1105-LasCarcavas-Landing</title>
<polygon class="st0" points="1.7,12.5 0,12.5 0,27.9 10.4,27.9 10.4,26.3 1.7,26.3 "/>
<path class="st0" d="M15.9,12.4L8.7,27.9h1.9l1.9-4.1h8.3l1.9,4.1h1.9l-7.1-15.5H15.9z M19.9,22.2h-6.8l3.4-7.4L19.9,22.2z"/>
<path class="st0" d="M35.8,20.9c-1.1-0.8-2.5-1.4-3.8-1.5c-0.7-0.1-1.4-0.3-2.1-0.6c-0.4-0.1-0.9-0.4-1.2-0.6
	c-0.2-0.2-0.4-0.4-0.6-0.7c-0.1-0.3-0.2-0.6-0.2-0.9l0,0c0-0.3,0.1-0.6,0.2-0.9c0.2-0.3,0.4-0.6,0.6-0.8c0.3-0.2,0.6-0.4,1-0.5
	c0.5-0.2,0.9-0.2,1.4-0.2c0.7,0,1.5,0.1,2.2,0.4c0.7,0.3,1.4,0.7,2,1.2l0.2,0.2l1.1-1.4l-0.2-0.2c-0.7-0.6-1.5-1.1-2.4-1.4
	c-0.9-0.3-1.9-0.5-2.9-0.5c-0.7,0-1.4,0.1-2,0.3c-0.6,0.2-1.1,0.5-1.6,0.9c-0.4,0.4-0.8,0.8-1.1,1.3c-0.3,0.5-0.4,1.1-0.4,1.7l0,0
	c0,0.6,0.1,1.1,0.3,1.6c0.2,0.5,0.6,0.9,1,1.3c0.5,0.4,1,0.7,1.6,0.9c0.8,0.3,1.5,0.5,2.3,0.7c0.7,0.1,1.3,0.3,2,0.5
	c0.4,0.1,0.8,0.4,1.2,0.6c0.2,0.2,0.4,0.4,0.5,0.7c0.1,0.3,0.2,0.6,0.2,0.9v0c0,0.3-0.1,0.7-0.2,1c-0.2,0.3-0.4,0.6-0.7,0.8
	c-0.3,0.2-0.7,0.4-1.1,0.5c-0.5,0.1-0.9,0.2-1.4,0.2c-0.5,0-1,0-1.5-0.1c-0.4-0.1-0.9-0.2-1.3-0.3c-0.4-0.2-0.8-0.4-1.2-0.7
	c-0.4-0.3-0.8-0.6-1.2-0.9l-0.2-0.2l-1.1,1.3l0.2,0.2c0.8,0.8,1.8,1.4,2.8,1.8c1.1,0.4,2.2,0.6,3.3,0.6c0.7,0,1.4-0.1,2.1-0.3
	c0.6-0.2,1.2-0.5,1.6-0.9c0.5-0.4,0.8-0.8,1.1-1.4c0.3-0.6,0.4-1.2,0.4-1.8l0,0C37.1,22.7,36.6,21.6,35.8,20.9z"/>
<path class="st0" d="M65.9,35.2c-3.9,0-7.7-1.5-10.4-4.4c-1.3-1.4-2.3-3-3-4.8c-0.7-1.9-1.1-3.9-1.1-5.9v-0.1c0-2,0.4-4,1.1-5.8
	c0.7-1.8,1.7-3.4,3-4.8c1.3-1.4,2.9-2.5,4.6-3.3C62,5.4,64,5,66,5c1.2,0,2.4,0.1,3.6,0.3c1,0.2,2,0.6,2.9,1c0.9,0.4,1.7,0.9,2.5,1.5
	c0.8,0.6,1.6,1.2,2.3,1.9l-1.6,1.6c-0.6-0.6-1.3-1.2-2-1.7c-0.7-0.5-1.4-1-2.2-1.4c-0.8-0.4-1.7-0.7-2.5-0.9C68,7.1,67,7,66,7
	c-1.7,0-3.3,0.3-4.9,1c-1.5,0.6-2.8,1.6-3.9,2.8c-1.1,1.2-2,2.6-2.6,4.1c-0.6,1.6-1,3.4-0.9,5.1v0.1c0,1.8,0.3,3.5,1,5.2
	c0.6,1.5,1.5,3,2.6,4.2c1.1,1.2,2.4,2.1,3.9,2.8c1.5,0.7,3.2,1,4.9,1c1.9,0,3.8-0.4,5.5-1.2c1.7-0.9,3.2-2,4.6-3.4l1.5,1.4
	c-0.8,0.7-1.6,1.4-2.4,2.1c-0.8,0.6-1.7,1.2-2.6,1.6c-1,0.4-2,0.8-3,1C68.4,35.1,67.1,35.2,65.9,35.2z"/>
<path class="st0" d="M93.2,5.3h2.1l13.6,29.4h-2.4l-3.7-8.2H85.6l-3.7,8.2h-2.2L93.2,5.3z M101.9,24.6L94.7,8.6
	c-0.1-0.2-0.4-0.3-0.7-0.2c-0.1,0-0.2,0.1-0.2,0.2l-7.3,16L101.9,24.6z"/>
<path class="st0" d="M113.2,5.5h12.3c1.6,0,3.3,0.2,4.8,0.8c1.3,0.4,2.4,1.2,3.4,2.1c0.7,0.7,1.3,1.5,1.6,2.4c0.4,1,0.6,2,0.6,3v0.1
	c0,1.1-0.2,2.2-0.6,3.3c-0.4,0.9-1,1.8-1.8,2.5c-0.8,0.7-1.7,1.3-2.7,1.7c-1.1,0.4-2.2,0.7-3.4,0.9l9.7,12.5h-2.8l-9.3-12.1h-9.6
	v12.1h-2.2L113.2,5.5z M125.2,20.7c1.1,0,2.3-0.1,3.4-0.5c1-0.3,1.9-0.7,2.7-1.3c0.7-0.6,1.3-1.3,1.8-2.1c0.4-0.9,0.7-1.8,0.6-2.8
	v-0.1c0.1-1.8-0.7-3.6-2.2-4.7c-1.8-1.2-4-1.9-6.2-1.7h-10v13.2H125.2z"/>
<path class="st0" d="M154.4,35.2c-6,0.1-11.3-3.6-13.4-9.1c-0.7-1.9-1.1-3.9-1.1-5.9v-0.1c0-2,0.4-4,1.1-5.8c0.7-1.8,1.7-3.4,3-4.8
	c1.3-1.4,2.9-2.5,4.6-3.3c1.8-0.8,3.8-1.2,5.9-1.2c1.2,0,2.4,0.1,3.6,0.3c1,0.2,2,0.6,2.9,1c0.9,0.4,1.8,0.9,2.5,1.5
	c0.8,0.6,1.6,1.2,2.3,1.9l-1.6,1.6c-0.6-0.6-1.3-1.2-2-1.7c-0.7-0.5-1.5-1-2.3-1.4c-0.8-0.4-1.7-0.7-2.6-0.9c-1-0.2-2-0.3-3-0.3
	c-1.7,0-3.3,0.3-4.9,1c-1.5,0.6-2.8,1.6-3.9,2.8c-1.1,1.2-2,2.6-2.6,4.1c-0.6,1.6-1,3.4-0.9,5.1v0.1c0,1.8,0.3,3.5,1,5.2
	c0.6,1.5,1.5,3,2.6,4.2c1.1,1.2,2.4,2.1,3.9,2.8c1.5,0.7,3.2,1,4.9,1c1.9,0.1,3.8-0.3,5.5-1.1c1.7-0.9,3.2-2,4.6-3.4l1.4,1.4
	c-0.8,0.7-1.6,1.4-2.4,2.1c-0.8,0.6-1.7,1.2-2.6,1.6c-1,0.4-2,0.8-3,1C156.8,35.1,155.6,35.2,154.4,35.2z"/>
<path class="st0" d="M180.4,5.3h2.1l13.6,29.4h-2.4l-3.7-8.2h-17.2l-3.8,8.2h-2.3L180.4,5.3z M189.1,24.6l-7.2-15.9
	c-0.1-0.2-0.4-0.3-0.7-0.2c-0.1,0-0.2,0.1-0.2,0.2l-7.3,16L189.1,24.6z"/>
<path class="st0" d="M209.1,31.9l11.5-26.4h2.3L210,35h-5.1L192,5.5h2.4l11.4,26.4c0.2,0.5,0.6,0.7,1.1,0.7h1
	C208.5,32.6,208.9,32.4,209.1,31.9z"/>
<path class="st0" d="M232.3,5.3h2.1L248,34.7h-2.4l-3.7-8.2h-17.2l-3.7,8.2h-2.3L232.3,5.3z M241,24.6l-7.2-15.9
	c-0.1-0.2-0.4-0.3-0.6-0.2c-0.1,0-0.2,0.1-0.2,0.2l-7.3,16L241,24.6z"/>
<path class="st0" d="M262.3,35.2c-2.2,0-4.3-0.4-6.3-1.2c-2-0.9-3.8-2-5.4-3.5l1.4-1.6c0.8,0.7,1.6,1.3,2.4,1.9
	c0.8,0.5,1.6,1,2.4,1.3c0.8,0.4,1.7,0.6,2.6,0.8c1,0.2,2,0.3,3,0.3c1,0,2-0.1,3-0.4c0.8-0.3,1.6-0.7,2.3-1.2
	c0.6-0.5,1.1-1.1,1.5-1.8c0.4-0.7,0.6-1.5,0.5-2.3v-0.1c0-0.7-0.1-1.4-0.4-2.1c-0.3-0.7-0.7-1.2-1.3-1.7c-0.8-0.6-1.6-1-2.5-1.4
	c-1.3-0.5-2.7-0.9-4.1-1.1c-1.5-0.3-3-0.7-4.5-1.3c-1.1-0.4-2.1-1-3.1-1.7c-0.8-0.6-1.3-1.4-1.7-2.3c-0.4-1-0.6-2-0.5-3v-0.1
	c0-1,0.2-2.1,0.7-3c0.5-0.9,1.2-1.8,2-2.4c0.9-0.7,1.9-1.3,3-1.6c1.2-0.4,2.5-0.6,3.8-0.6c1.8,0,3.7,0.3,5.4,0.9
	c1.6,0.6,3.2,1.5,4.5,2.7l-1.4,1.7c-2.4-2.2-5.5-3.4-8.8-3.3c-1,0-2,0.1-2.9,0.4c-0.8,0.3-1.6,0.7-2.3,1.2c-0.6,0.5-1.1,1.1-1.4,1.8
	c-0.3,0.7-0.5,1.4-0.5,2.1v0.1c0,0.7,0.1,1.4,0.4,2.1c0.3,0.7,0.7,1.3,1.3,1.7c0.8,0.6,1.7,1.1,2.6,1.4c1.4,0.5,2.8,0.9,4.3,1.2
	c3.4,0.7,5.8,1.6,7.3,2.9c1.5,1.3,2.4,3.1,2.3,5.1v0.1c0,1.1-0.2,2.2-0.7,3.2c-0.5,1-1.2,1.8-2,2.5c-0.9,0.7-1.9,1.3-3,1.6
	C265,35,263.7,35.2,262.3,35.2z"/>
<path class="st0" d="M98.1,1.3l-5.7,1.5h-1.6c0,0-0.1,0-0.1-0.1c0,0,0-0.1,0.1-0.1L97.5,0L98.1,1.3z"/>
</svg>
